-------------------------------------------------------------------------------
Test set: com.geektrust.traffic.TrafficAppTest
-------------------------------------------------------------------------------
Tests run: 1, Failures: 0, Errors: 0, Skipped: 0, Time elapsed: 0.4 sec
